D:\FROSTFX\AllTheSins\footage\161_01\161_01_L1\161_01_L1_OCIO_EXR\A060C005_200211_A1NS01094534.exr.exr
D:\FROSTFX\AllTheSins\footage\161_01\161_01_L1\161_01_L1_OCIO_EXR\A060C005_200211_A1NS01094535.exr.exr
D:\FROSTFX\AllTheSins\footage\161_01\161_01_L1\161_01_L1_OCIO_EXR\A060C005_200211_A1NS01094536.exr.exr
D:\FROSTFX\AllTheSins\footage\161_01\161_01_L1\161_01_L1_OCIO_EXR\A060C005_200211_A1NS01094537.exr.exr
D:\FROSTFX\AllTheSins\footage\161_01\161_01_L1\161_01_L1_OCIO_EXR\A060C005_200211_A1NS01094538.exr.exr
D:\FROSTFX\AllTheSins\footage\161_01\161_01_L1\161_01_L1_OCIO_EXR\A060C005_200211_A1NS01094539.exr.exr
D:\FROSTFX\AllTheSins\footage\161_01\161_01_L1\161_01_L1_OCIO_EXR\A060C005_200211_A1NS01094540.exr.exr
D:\FROSTFX\AllTheSins\footage\161_01\161_01_L1\161_01_L1_OCIO_EXR\A060C005_200211_A1NS01094541.exr.exr
D:\FROSTFX\AllTheSins\footage\161_01\161_01_L1\161_01_L1_OCIO_EXR\A060C005_200211_A1NS01094542.exr.exr
D:\FROSTFX\AllTheSins\footage\161_01\161_01_L1\161_01_L1_OCIO_EXR\A060C005_200211_A1NS01094543.exr.exr
D:\FROSTFX\AllTheSins\footage\161_01\161_01_L1\161_01_L1_OCIO_EXR\A060C005_200211_A1NS01094544.exr.exr
D:\FROSTFX\AllTheSins\footage\161_01\161_01_L1\161_01_L1_OCIO_EXR\A060C005_200211_A1NS01094545.exr.exr
D:\FROSTFX\AllTheSins\footage\161_01\161_01_L1\161_01_L1_OCIO_EXR\A060C005_200211_A1NS01094546.exr.exr
D:\FROSTFX\AllTheSins\footage\161_01\161_01_L1\161_01_L1_OCIO_EXR\A060C005_200211_A1NS01094547.exr.exr
D:\FROSTFX\AllTheSins\footage\161_01\161_01_L1\161_01_L1_OCIO_EXR\A060C005_200211_A1NS01094548.exr.exr
D:\FROSTFX\AllTheSins\footage\161_01\161_01_L1\161_01_L1_OCIO_EXR\A060C005_200211_A1NS01094549.exr.exr
D:\FROSTFX\AllTheSins\footage\161_01\161_01_L1\161_01_L1_OCIO_EXR\A060C005_200211_A1NS01094550.exr.exr
D:\FROSTFX\AllTheSins\footage\161_01\161_01_L1\161_01_L1_OCIO_EXR\A060C005_200211_A1NS01094551.exr.exr
D:\FROSTFX\AllTheSins\footage\161_01\161_01_L1\161_01_L1_OCIO_EXR\A060C005_200211_A1NS01094552.exr.exr
D:\FROSTFX\AllTheSins\footage\161_01\161_01_L1\161_01_L1_OCIO_EXR\A060C005_200211_A1NS01094553.exr.exr
D:\FROSTFX\AllTheSins\footage\161_01\161_01_L1\161_01_L1_OCIO_EXR\A060C005_200211_A1NS01094554.exr.exr
D:\FROSTFX\AllTheSins\footage\161_01\161_01_L1\161_01_L1_OCIO_EXR\A060C005_200211_A1NS01094555.exr.exr
D:\FROSTFX\AllTheSins\footage\161_01\161_01_L1\161_01_L1_OCIO_EXR\A060C005_200211_A1NS01094556.exr.exr
D:\FROSTFX\AllTheSins\footage\161_01\161_01_L1\161_01_L1_OCIO_EXR\A060C005_200211_A1NS01094557.exr.exr
D:\FROSTFX\AllTheSins\footage\161_01\161_01_L1\161_01_L1_OCIO_EXR\A060C005_200211_A1NS01094558.exr.exr
D:\FROSTFX\AllTheSins\footage\161_01\161_01_L1\161_01_L1_OCIO_EXR\A060C005_200211_A1NS01094559.exr.exr
D:\FROSTFX\AllTheSins\footage\161_01\161_01_L1\161_01_L1_OCIO_EXR\A060C005_200211_A1NS01094560.exr.exr
D:\FROSTFX\AllTheSins\footage\161_01\161_01_L1\161_01_L1_OCIO_EXR\A060C005_200211_A1NS01094561.exr.exr
D:\FROSTFX\AllTheSins\footage\161_01\161_01_L1\161_01_L1_OCIO_EXR\A060C005_200211_A1NS01094562.exr.exr
D:\FROSTFX\AllTheSins\footage\161_01\161_01_L1\161_01_L1_OCIO_EXR\A060C005_200211_A1NS01094563.exr.exr
D:\FROSTFX\AllTheSins\footage\161_01\161_01_L1\161_01_L1_OCIO_EXR\A060C005_200211_A1NS01094564.exr.exr
D:\FROSTFX\AllTheSins\footage\161_01\161_01_L1\161_01_L1_OCIO_EXR\A060C005_200211_A1NS01094565.exr.exr
D:\FROSTFX\AllTheSins\footage\161_01\161_01_L1\161_01_L1_OCIO_EXR\A060C005_200211_A1NS01094566.exr.exr
D:\FROSTFX\AllTheSins\footage\161_01\161_01_L1\161_01_L1_OCIO_EXR\A060C005_200211_A1NS01094567.exr.exr
D:\FROSTFX\AllTheSins\footage\161_01\161_01_L1\161_01_L1_OCIO_EXR\A060C005_200211_A1NS01094568.exr.exr
D:\FROSTFX\AllTheSins\footage\161_01\161_01_L1\161_01_L1_OCIO_EXR\A060C005_200211_A1NS01094569.exr.exr
D:\FROSTFX\AllTheSins\footage\161_01\161_01_L1\161_01_L1_OCIO_EXR\A060C005_200211_A1NS01094570.exr.exr
D:\FROSTFX\AllTheSins\footage\161_01\161_01_L1\161_01_L1_OCIO_EXR\A060C005_200211_A1NS01094571.exr.exr
D:\FROSTFX\AllTheSins\footage\161_01\161_01_L1\161_01_L1_OCIO_EXR\A060C005_200211_A1NS01094572.exr.exr
D:\FROSTFX\AllTheSins\footage\161_01\161_01_L1\161_01_L1_OCIO_EXR\A060C005_200211_A1NS01094573.exr.exr
D:\FROSTFX\AllTheSins\footage\161_01\161_01_L1\161_01_L1_OCIO_EXR\A060C005_200211_A1NS01094574.exr.exr
D:\FROSTFX\AllTheSins\footage\161_01\161_01_L1\161_01_L1_OCIO_EXR\A060C005_200211_A1NS01094575.exr.exr
D:\FROSTFX\AllTheSins\footage\161_01\161_01_L1\161_01_L1_OCIO_EXR\A060C005_200211_A1NS01094576.exr.exr
D:\FROSTFX\AllTheSins\footage\161_01\161_01_L1\161_01_L1_OCIO_EXR\A060C005_200211_A1NS01094577.exr.exr
D:\FROSTFX\AllTheSins\footage\161_01\161_01_L1\161_01_L1_OCIO_EXR\A060C005_200211_A1NS01094578.exr.exr
D:\FROSTFX\AllTheSins\footage\161_01\161_01_L1\161_01_L1_OCIO_EXR\A060C005_200211_A1NS01094579.exr.exr
D:\FROSTFX\AllTheSins\footage\161_01\161_01_L1\161_01_L1_OCIO_EXR\A060C005_200211_A1NS01094580.exr.exr
D:\FROSTFX\AllTheSins\footage\161_01\161_01_L1\161_01_L1_OCIO_EXR\A060C005_200211_A1NS01094581.exr.exr
D:\FROSTFX\AllTheSins\footage\161_01\161_01_L1\161_01_L1_OCIO_EXR\A060C005_200211_A1NS01094582.exr.exr
D:\FROSTFX\AllTheSins\footage\161_01\161_01_L1\161_01_L1_OCIO_EXR\A060C005_200211_A1NS01094583.exr.exr
D:\FROSTFX\AllTheSins\footage\161_01\161_01_L1\161_01_L1_OCIO_EXR\A060C005_200211_A1NS01094584.exr.exr
D:\FROSTFX\AllTheSins\footage\161_01\161_01_L1\161_01_L1_OCIO_EXR\A060C005_200211_A1NS01094585.exr.exr
D:\FROSTFX\AllTheSins\footage\161_01\161_01_L1\161_01_L1_OCIO_EXR\A060C005_200211_A1NS01094586.exr.exr
D:\FROSTFX\AllTheSins\footage\161_01\161_01_L1\161_01_L1_OCIO_EXR\A060C005_200211_A1NS01094587.exr.exr
D:\FROSTFX\AllTheSins\footage\161_01\161_01_L1\161_01_L1_OCIO_EXR\A060C005_200211_A1NS01094588.exr.exr
D:\FROSTFX\AllTheSins\footage\161_01\161_01_L1\161_01_L1_OCIO_EXR\A060C005_200211_A1NS01094589.exr.exr
D:\FROSTFX\AllTheSins\footage\161_01\161_01_L1\161_01_L1_OCIO_EXR\A060C005_200211_A1NS01094590.exr.exr
D:\FROSTFX\AllTheSins\footage\161_01\161_01_L1\161_01_L1_OCIO_EXR\A060C005_200211_A1NS01094591.exr.exr
D:\FROSTFX\AllTheSins\footage\161_01\161_01_L1\161_01_L1_OCIO_EXR\A060C005_200211_A1NS01094592.exr.exr
D:\FROSTFX\AllTheSins\footage\161_01\161_01_L1\161_01_L1_OCIO_EXR\A060C005_200211_A1NS01094593.exr.exr
D:\FROSTFX\AllTheSins\footage\161_01\161_01_L1\161_01_L1_OCIO_EXR\A060C005_200211_A1NS01094594.exr.exr
D:\FROSTFX\AllTheSins\footage\161_01\161_01_L1\161_01_L1_OCIO_EXR\A060C005_200211_A1NS01094595.exr.exr
D:\FROSTFX\AllTheSins\footage\161_01\161_01_L1\161_01_L1_OCIO_EXR\A060C005_200211_A1NS01094596.exr.exr
D:\FROSTFX\AllTheSins\footage\161_01\161_01_L1\161_01_L1_OCIO_EXR\A060C005_200211_A1NS01094597.exr.exr
D:\FROSTFX\AllTheSins\footage\161_01\161_01_L1\161_01_L1_OCIO_EXR\A060C005_200211_A1NS01094598.exr.exr
D:\FROSTFX\AllTheSins\footage\161_01\161_01_L1\161_01_L1_OCIO_EXR\A060C005_200211_A1NS01094599.exr.exr
D:\FROSTFX\AllTheSins\footage\161_01\161_01_L1\161_01_L1_OCIO_EXR\A060C005_200211_A1NS01094600.exr.exr
D:\FROSTFX\AllTheSins\footage\161_01\161_01_L1\161_01_L1_OCIO_EXR\A060C005_200211_A1NS01094601.exr.exr
D:\FROSTFX\AllTheSins\footage\161_01\161_01_L1\161_01_L1_OCIO_EXR\A060C005_200211_A1NS01094602.exr.exr
D:\FROSTFX\AllTheSins\footage\161_01\161_01_L1\161_01_L1_OCIO_EXR\A060C005_200211_A1NS01094603.exr.exr
D:\FROSTFX\AllTheSins\footage\161_01\161_01_L1\161_01_L1_OCIO_EXR\A060C005_200211_A1NS01094604.exr.exr
D:\FROSTFX\AllTheSins\footage\161_01\161_01_L1\161_01_L1_OCIO_EXR\A060C005_200211_A1NS01094605.exr.exr
D:\FROSTFX\AllTheSins\footage\161_01\161_01_L1\161_01_L1_OCIO_EXR\A060C005_200211_A1NS01094606.exr.exr
D:\FROSTFX\AllTheSins\footage\161_01\161_01_L1\161_01_L1_OCIO_EXR\A060C005_200211_A1NS01094607.exr.exr
D:\FROSTFX\AllTheSins\footage\161_01\161_01_L1\161_01_L1_OCIO_EXR\A060C005_200211_A1NS01094608.exr.exr
D:\FROSTFX\AllTheSins\footage\161_01\161_01_L1\161_01_L1_OCIO_EXR\A060C005_200211_A1NS01094609.exr.exr
D:\FROSTFX\AllTheSins\footage\161_01\161_01_L1\161_01_L1_OCIO_EXR\A060C005_200211_A1NS01094610.exr.exr
D:\FROSTFX\AllTheSins\footage\161_01\161_01_L1\161_01_L1_OCIO_EXR\A060C005_200211_A1NS01094611.exr.exr
D:\FROSTFX\AllTheSins\footage\161_01\161_01_L1\161_01_L1_OCIO_EXR\A060C005_200211_A1NS01094612.exr.exr
D:\FROSTFX\AllTheSins\footage\161_01\161_01_L1\161_01_L1_OCIO_EXR\A060C005_200211_A1NS01094613.exr.exr
D:\FROSTFX\AllTheSins\footage\161_01\161_01_L1\161_01_L1_OCIO_EXR\A060C005_200211_A1NS01094614.exr.exr
D:\FROSTFX\AllTheSins\footage\161_01\161_01_L1\161_01_L1_OCIO_EXR\A060C005_200211_A1NS01094615.exr.exr
D:\FROSTFX\AllTheSins\footage\161_01\161_01_L1\161_01_L1_OCIO_EXR\A060C005_200211_A1NS01094616.exr.exr
D:\FROSTFX\AllTheSins\footage\161_01\161_01_L1\161_01_L1_OCIO_EXR\A060C005_200211_A1NS01094617.exr.exr
D:\FROSTFX\AllTheSins\footage\161_01\161_01_L1\161_01_L1_OCIO_EXR\A060C005_200211_A1NS01094618.exr.exr
D:\FROSTFX\AllTheSins\footage\161_01\161_01_L1\161_01_L1_OCIO_EXR\A060C005_200211_A1NS01094619.exr.exr
D:\FROSTFX\AllTheSins\footage\161_01\161_01_L1\161_01_L1_OCIO_EXR\A060C005_200211_A1NS01094620.exr.exr
D:\FROSTFX\AllTheSins\footage\161_01\161_01_L1\161_01_L1_OCIO_EXR\A060C005_200211_A1NS01094621.exr.exr
D:\FROSTFX\AllTheSins\footage\161_01\161_01_L1\161_01_L1_OCIO_EXR\A060C005_200211_A1NS01094622.exr.exr
D:\FROSTFX\AllTheSins\footage\161_01\161_01_L1\161_01_L1_OCIO_EXR\A060C005_200211_A1NS01094623.exr.exr
D:\FROSTFX\AllTheSins\footage\161_01\161_01_L1\161_01_L1_OCIO_EXR\A060C005_200211_A1NS01094624.exr.exr
D:\FROSTFX\AllTheSins\footage\161_01\161_01_L1\161_01_L1_OCIO_EXR\A060C005_200211_A1NS01094625.exr.exr
D:\FROSTFX\AllTheSins\footage\161_01\161_01_L1\161_01_L1_OCIO_EXR\A060C005_200211_A1NS01094626.exr.exr
D:\FROSTFX\AllTheSins\footage\161_01\161_01_L1\161_01_L1_OCIO_EXR\A060C005_200211_A1NS01094627.exr.exr
D:\FROSTFX\AllTheSins\footage\161_01\161_01_L1\161_01_L1_OCIO_EXR\A060C005_200211_A1NS01094628.exr.exr
D:\FROSTFX\AllTheSins\footage\161_01\161_01_L1\161_01_L1_OCIO_EXR\A060C005_200211_A1NS01094629.exr.exr
D:\FROSTFX\AllTheSins\footage\161_01\161_01_L1\161_01_L1_OCIO_EXR\A060C005_200211_A1NS01094630.exr.exr
D:\FROSTFX\AllTheSins\footage\161_01\161_01_L1\161_01_L1_OCIO_EXR\A060C005_200211_A1NS01094631.exr.exr
